module example/user/rebellion

go 1.17

require (
	github.com/abadojack/whatlanggo v1.0.1
	github.com/tcnksm/go-input v0.0.0-20180404061846-548a7d7a8ee8
)

require (
	golang.org/x/crypto v0.0.0-20211215153901-e495a2d5b3d3 // indirect
	golang.org/x/sys v0.0.0-20210615035016-665e8c7367d1 // indirect
	golang.org/x/term v0.0.0-20201126162022-7de9c90e9dd1 // indirect
)
